<svg version="1.1" xmlns="http://www.w3.org/2000/svg" xmlns:xlink="http://www.w3.org/1999/xlink"
	width="284" height="217.16"
	viewBox="458 799 284 217.16"
	preserveAspectRatio="none"
	class="map">
		<g id="Dezentrale_Livestreams">
			<g>
				<g>
					<defs>
						<rect id="SVGID_101_" x="458" y="799" width="284" height="217.16"/>
					</defs>
					<clipPath id="SVGID_102_">
						<use xlink:href="#SVGID_101_"  style="overflow:visible;"/>
					</clipPath>
					<g class="st146">
						<defs>
							<rect id="SVGID_103_" x="458" y="799" width="284" height="217.16"/>
						</defs>
						<clipPath id="SVGID_104_">
							<use xlink:href="#SVGID_103_"  style="overflow:visible;"/>
						</clipPath>
						<g class="st147">
							<defs>
								<rect id="SVGID_105_" x="465.76" y="805.3" width="265.4" height="204.7"/>
							</defs>
							<clipPath id="SVGID_106_">
								<use xlink:href="#SVGID_105_"  style="overflow:visible;"/>
							</clipPath>
							<g class="st148">
								<defs>
									<rect id="SVGID_107_" x="465.76" y="805.3" width="265.4" height="204.7"/>
								</defs>
								<clipPath id="SVGID_108_">
									<use xlink:href="#SVGID_107_"  style="overflow:visible;"/>
								</clipPath>
								<polygon class="st149" points="731.17,856.34 731.16,856.38 731.12,856.36 							"/>
								<path class="st149" d="M710.33,864.62c0-0.03,0-0.06,0-0.08l20.79-8.18l0.04,0.01l-1.47,19.02l-20.22,8.89l-0.4-0.14
									C709.67,875.02,710.13,867.84,710.33,864.62"/>
								<path class="st150" d="M731.12,856.36l-20.79,8.18c0.06-1.04,0.1-1.65,0.1-1.74l-0.11,1.75l-0.1,0.04l-0.74-0.23l-54-16.81
									v-0.04l21.4-6.78L731.12,856.36z"/>
								<path class="st151" d="M709.48,884.28l20.22-8.89l-1.63,21.11l-20.34,8.35c0.47-7.24,0.93-14.24,1.33-20.38L709.48,884.28z"
									/>
								<path class="st152" d="M707.72,904.9c0-0.02,0-0.03,0-0.05l20.34-8.35l-1.37,17.71l-20.2,9.76l-0.03-0.01
									C706.89,917.7,707.31,911.21,707.72,904.9"/>
								<path class="st149" d="M706.5,923.97l20.2-9.76l-1.63,21.11l-19.94,9.06c0.4-6.07,0.86-13.08,1.34-20.4L706.5,923.97z"/>
								<path class="st152" d="M705.13,944.48c0-0.03,0.01-0.06,0.01-0.08l19.94-9.06l-1.21,15.7l-19.82,10.96l-0.07-0.03
									C704.19,958.76,704.6,952.44,705.13,944.48"/>
								<path class="st153" d="M710.32,864.55l0.11-1.75c0,0.1-0.03,0.7-0.1,1.74L710.32,864.55z"/>
								<path class="st153" d="M710.33,864.54c0,0.02,0,0.05,0,0.08l-0.02-0.01l0.01-0.07L710.33,864.54z"/>
								<path class="st153" d="M710.31,864.62l0.02,0.01c-0.2,3.22-0.66,10.4-1.25,19.52l-0.04-0.01L710.31,864.62z"/>
								<path class="st150" d="M710.22,864.59l0.09,0.03l-1.27,19.51l-28.61-9.97l0.08-2.48l0.01-0.21c-0.1,0.04-0.2,0.08-0.3,0.12
									l-24.74-8.09v-15.94l54,16.81L710.22,864.59z"/>
								<path class="st153" d="M709.08,884.14c-0.01,0.11-0.01,0.22-0.02,0.32l-0.04,0.02l0.02-0.35L709.08,884.14z"/>
								<path class="st153" d="M709.02,884.48l0.04-0.02c-0.4,6.14-0.86,13.14-1.33,20.38l-0.04,0.01L709.02,884.48z"/>
								<polygon class="st154" points="709.02,884.48 707.69,904.86 707.66,904.88 679.77,894.73 679.87,891.7 680.43,874.16
									709.04,884.13 							"/>
								<path class="st153" d="M707.73,904.85c0,0.02,0,0.03,0,0.05l-0.03-0.01v-0.03L707.73,904.85z"/>
								<path class="st153" d="M707.69,904.89l0.03,0.01c-0.41,6.31-0.84,12.79-1.25,19.06l-0.03-0.01L707.69,904.89z"/>
								<polygon class="st155" points="707.66,904.88 707.69,904.89 706.45,923.95 679.19,912.8 679.77,894.73 							"/>
								<polygon class="st153" points="706.47,923.96 706.47,923.99 706.45,924 706.45,923.95 							"/>
								<path class="st153" d="M706.45,924l0.03-0.01c-0.48,7.32-0.94,14.34-1.34,20.4l-0.02,0.01L706.45,924z"/>
								<path class="st150" d="M706.45,924l-1.33,20.4l-0.07,0.03l-1.04-0.63l-3.35-1.48l1.32-19.29c0,0-22.65-8.43-22.83-8.98v0
									l0.04-1.26l27.26,11.16L706.45,924z"/>
								<path class="st153" d="M705.13,944.39c0,0.03,0,0.06-0.01,0.08l-0.02-0.01l0.01-0.07L705.13,944.39z"/>
								<path class="st153" d="M705.11,944.47l0.02,0.01c-0.52,7.97-0.94,14.28-1.15,17.48h0L705.11,944.47z"/>
								<polygon class="st150" points="705.12,944.4 705.11,944.47 705.05,944.43 							"/>
								<path class="st155" d="M705.05,944.43l0.06,0.04l-1.14,17.49l-23.39-10.18c7.15-3.2,20.08-9.45,20.08-9.45l3.35,1.48
									L705.05,944.43z"/>
								<path class="st153" d="M703.98,961.96c0,0.02,0,0.04-0.01,0.07L703.98,961.96L703.98,961.96z"/>
								<path class="st153" d="M703.94,962.51l0.02-0.35C703.95,962.28,703.95,962.4,703.94,962.51"/>
								<path class="st153" d="M703.9,963.12l0.02-0.29C703.91,962.94,703.9,963.03,703.9,963.12"/>
								<path class="st153" d="M703.87,963.61l0.03-0.49C703.89,963.31,703.88,963.47,703.87,963.61"/>
								<path class="st151" d="M678.53,933.47c13.62-6.06,23.45-10.44,23.45-10.44l-1.32,19.29c0,0-12.93,6.25-20.08,9.45h0
									c-2.53,1.13-4.34,1.88-4.59,1.84c-8.51-4.13-20.51-9.94-20.51-9.89C663.61,940.11,671.57,936.57,678.53,933.47"/>
								<path class="st154" d="M679.15,914.06c0.18,0.55,22.83,8.98,22.83,8.98s-9.83,4.38-23.45,10.44L679.15,914.06z"/>
								<path class="st149" d="M655.86,969.29c5.28-2.36,19.79-9.49,25.78-12.45v20.48l-26.15,12.96v-20.83
									C655.6,969.4,655.72,969.35,655.86,969.29"/>
								<path class="st150" d="M675.99,953.61c2.21,1.07,4.18,2.03,5.65,2.74v0.48c-5.99,2.95-20.49,10.09-25.78,12.45l-28.74-12.82
									l0-0.13c8.81-3.92,18.71-8.32,28.36-12.61C655.48,943.67,667.48,949.49,675.99,953.61"/>
								<path class="st152" d="M655.53,881.03c4.87-1.74,19.16-7.29,24.68-9.44l0.29,0.1l-0.08,2.48l-0.56,17.54
									c-2.64,1.07-12.41,5.02-24.39,9.84v-20.5C655.5,881.04,655.52,881.03,655.53,881.03"/>
								<path class="st155" d="M655.48,881.01c-7.95-2.89-26.03-9.48-27.03-9.92v-0.04c0.22-0.08,1.12-0.38,2.46-0.84
									c3.93-1.33,11.66-3.93,17.18-5.79c2.22-0.75,4.09-1.38,5.21-1.75c0.01,0,0.01,0,0.02-0.01l0.05,0.15l2.11,0.69l24.74,8.09
									c-5.52,2.15-19.81,7.7-24.68,9.44C655.52,881.02,655.5,881.01,655.48,881.01"/>
								<path class="st151" d="M627.8,912.64c9.02-3.6,18.73-7.5,27.33-10.96l0.35,0.13v-0.27c11.98-4.82,21.74-8.77,24.39-9.84
									l-0.1,3.03l-0.58,18.07c-6.05,2.58-30.83,13.16-51.74,22.03c-12.84,5.45-24.22,10.25-28.89,12.16l-0.22-22.78
									c0.12-0.04,0.24-0.08,0.36-0.13c4.81-1.78,16.22-6.29,29.04-11.41C627.77,912.66,627.78,912.65,627.8,912.64"/>
								<path class="st152" d="M679.19,912.8l-0.04,1.26v0l-0.62,19.42c-6.96,3.1-14.91,6.64-23.05,10.26
									c-9.65,4.29-19.54,8.69-28.36,12.61l0.34-21.51C648.36,925.96,673.14,915.38,679.19,912.8"/>
								<path class="st150" d="M655.48,847.5l-0.07,0.02l-23.72-7.38c8.31-2.5,16.33-4.92,21.13-6.36l24.07,6.94L655.48,847.5z"/>
								<path class="st150" d="M655.48,969.46v20.83l-0.15,0.08l-8.03-3.91l-19.82-9.65l-0.68,0.3l0.32-20.63l28.74,12.82
									C655.72,969.35,655.6,969.4,655.48,969.46"/>
								<path class="st155" d="M628.14,890.83l0.31-19.75c1,0.45,19.08,7.03,27.03,9.92v0.04v20.5c-0.12,0.04-0.23,0.09-0.35,0.14
									l-26.99-10.27L628.14,890.83z"/>
								<path class="st150" d="M653.31,862.65c-0.01,0-0.01,0-0.02,0.01c-1.12,0.38-2.98,1-5.21,1.75l-0.01-0.02l-16.98-5.94
									c0.08-5.39,0.18-11.97,0.28-18.21c0.1-0.03,0.21-0.06,0.31-0.09l23.72,7.38l0.07,0.02v15.94l-2.11-0.69L653.31,862.65z"/>
								<path class="st154" d="M628.14,891.41l26.99,10.27c-8.6,3.46-18.31,7.36-27.33,10.96L628.14,891.41z"/>
								<path class="st151" d="M631.68,820.4c0-0.08,0-0.17,0.01-0.24l20.91-6.36c0.24,0.06,0.46,0.12,0.68,0.17l-0.46,19.82
									c-4.8,1.45-12.82,3.87-21.13,6.36l-0.31-0.1C631.51,831.57,631.63,823.75,631.68,820.4"/>
								<path class="st154" d="M631.68,820.16l-0.41,0.12l-23.08-6.73v-0.28l19.29-4.62l2.05-0.49c6.08,1.4,17.28,4.19,23.07,5.64
									L631.68,820.16z"/>
								<path class="st154" d="M648.08,864.39l0.01,0.02c-5.52,1.86-13.25,4.46-17.18,5.79v0c0.01-0.02,0.08-4.95,0.19-11.76
									L648.08,864.39z"/>
								<polygon class="st152" points="647.29,986.45 626.49,996.51 626.8,977.1 627.48,976.8 							"/>
								<path class="st154" d="M631.27,820.28l0.41,0.12c-0.05,3.35-0.17,11.17-0.3,19.65l-23.19-7.22v-19.28L631.27,820.28z"/>
								<path class="st155" d="M599.37,836.21l-0.37-0.12l-1.63-0.5c0.98-0.01,10.75-2.52,10.83-2.75c0.01,0,0-0.01,0-0.01
									l23.19,7.22c0,0.06,0,0.12,0,0.19c-14.66,4.41-30.1,9.03-30.15,8.96h0c-1.66-3.73-2.53-8.01-2.25-12.87L599.37,836.21z"/>
								<path class="st152" d="M631.38,840.24c-0.09,6.23-0.2,12.81-0.28,18.21l-0.19-0.07c0,0-15.9,5.06-17.13,4.59
									c-0.02-0.01-0.03-0.02-0.04-0.03c-5.27-3.33-9.88-7.86-12.5-13.74h0C601.28,849.26,616.71,844.65,631.38,840.24"/>
								<path class="st152" d="M628.48,869.13l0-0.15l-0.25,0.08c-4.72-1.18-9.84-3.18-14.46-6.1c1.24,0.48,17.14-4.59,17.14-4.59
									l0.19,0.07c-0.11,6.81-0.19,11.74-0.19,11.76v0c-1.34,0.45-2.24,0.76-2.46,0.84L628.48,869.13z"/>
								<path class="st149" d="M628.48,869.13l-0.03,1.91c-0.03,0.01-0.05,0.02-0.05,0.02c0,0,0.02,0.01,0.05,0.03l-0.31,19.75
									c-5.28,2.01-23.52,8.96-29.75,11.17l-0.26-0.11l-0.22-22.72l30.32-10.11C628.32,869.09,628.4,869.11,628.48,869.13"/>
								<path class="st149" d="M569.99,845.14l28.99-8.81c-0.28,4.86,0.58,9.14,2.25,12.87c2.62,5.88,7.24,10.41,12.5,13.74
									c0.01,0.01,0.03,0.02,0.04,0.03c4.62,2.92,9.74,4.92,14.46,6.1l-30.32,10.11l-0.03,0.01c-15.4-3.74-27.96-14.75-28-34.01
									L569.99,845.14z"/>
								<path class="st149" d="M598.39,902c6.23-2.22,24.47-9.16,29.75-11.18l-0.01,0.58l-0.33,21.23c-0.02,0.01-0.04,0.01-0.06,0.02
									c-12.82,5.12-24.23,9.63-29.04,11.41l-0.36-0.16l-0.21-21.82C598.22,902.07,598.3,902.04,598.39,902"/>
								<path class="st152" d="M598.57,947.59l-0.01-0.6c4.68-1.91,16.05-6.71,28.89-12.16l-0.34,21.51
									c-13.8,6.13-24.94,11.07-28.24,12.51l-0.11-0.06L598.57,947.59z"/>
								<path class="st152" d="M598.89,968.84c3.3-1.44,14.43-6.37,28.24-12.51l0,0.13l-0.32,20.63l-27.82,12.46l-0.2-20.67
									C598.81,968.87,598.85,968.86,598.89,968.84"/>
								<polygon class="st151" points="598.98,989.88 598.97,989.56 626.8,977.1 626.49,996.51 599.17,1009.74 							"/>
								<polygon class="st154" points="598.66,989.7 598.98,989.88 599.17,1009.74 598.63,1010 573.51,995.93 573.08,975.65
									"/>
								<path class="st150" d="M597.36,835.59l1.63,0.5c-0.01,0.08-0.01,0.16-0.01,0.23l-28.99,8.81c-0.03-0.01-0.07-0.02-0.11-0.04
									c-5.78-2.03-20.4-7.4-25.36-9.22v-0.05l28.15-7.85L597.36,835.59z"/>
								<polygon class="st155" points="598.77,968.89 598.97,989.56 598.66,989.7 573.08,975.65 572.65,955.73 598.77,968.79
									"/>
								<polygon class="st155" points="572.65,955.73 546.92,942.88 546.13,922.03 572.2,934.74 597.9,947.26 598.57,947.59
									598.77,968.79 							"/>
								<path class="st154" d="M598.34,924.21l0.22,22.78c-0.24,0.1-0.46,0.19-0.66,0.27l-25.7-12.52l-0.49-22.64l26.62,11.82
									L598.34,924.21z"/>
								<polygon class="st150" points="598.13,902.1 598.34,923.92 571.72,912.1 571.3,892.52 571.26,890.72 598.13,901.9 							"/>
								<path class="st150" d="M571.26,890.72l-26.74-11.12l-0.81-21.24l-0.5-13.26l1.31-1.59v-4.8v-2.84
									c4.97,1.83,19.59,7.19,25.36,9.22v0.07c0.04,19.26,12.6,30.27,28,34.01l0.03-0.01l0.22,22.72L571.26,890.72z"/>
								<polygon class="st155" points="573.08,975.65 573.51,995.93 548.48,981.91 548.4,981.94 547.66,962.48 548.48,962.13
									"/>
								<polygon class="st150" points="573.08,975.65 548.48,962.13 547.66,962.48 546.92,942.88 572.65,955.73 							"/>
								<polygon class="st155" points="571.72,912.1 572.2,934.74 546.13,922.03 							"/>
								<polygon class="st152" points="571.3,892.52 571.72,912.1 546.13,922.03 545.35,901.45 571.2,892.52 							"/>
								<polygon class="st151" points="513.97,889.65 544.52,879.6 571.26,890.72 571.3,892.52 571.2,892.52 545.35,901.45
									515.14,911.88 513.83,889.69 							"/>
								<path class="st151" d="M518.83,974.58l0-0.04l28.83-12.06l0.74,19.47l-60.23,26.29h0l-1.37-20.09l-0.01-0.2l32.01-13.39
									C518.81,974.56,518.82,974.57,518.83,974.58"/>
								<path class="st152" d="M517.67,954.9l-0.03-0.58c6.79-2.55,29.28-11.45,29.28-11.45l0.74,19.6l-28.83,12.06L517.67,954.9z"/>
								<path class="st152" d="M516.42,933.59l0-0.02l29.71-11.54l0.79,20.84c0,0-22.49,8.89-29.28,11.45L516.42,933.59z"/>
								<polygon class="st151" points="515.15,912.07 515.14,911.88 545.35,901.45 546.13,922.03 516.42,933.57 							"/>
								<path class="st149" d="M513.35,867.5l30.37-9.14l0.81,21.24l-30.55,10.04c-0.04-0.02-0.1-0.04-0.14-0.07l-1.29-21.84
									L513.35,867.5z"/>
								<path class="st152" d="M511.35,843.93l31.49-8.67l0.18,4.69c0,0,0,0.01,0,0.01c0,0.01,0,0.02,0,0.03l0.2,5.11l0.5,13.26
									l-30.37,9.14l-0.85-0.36l-1.37-23.16L511.35,843.93z"/>
								<path class="st151" d="M509.95,820.63c6.23-2.35,25.08-6.29,32.04-7.75l0.85,22.38l-31.49,8.67l-0.22-0.09l-1.36-23.14
									C509.83,820.68,509.89,820.65,509.95,820.63"/>
								<path class="st154" d="M509.76,820.56l-22.57-8.31l29.79-6.96l25.01,7.5l0,0.08c-6.96,1.46-25.81,5.4-32.04,7.75
									L509.76,820.56z"/>
								<path class="st155" d="M517.05,954.54l0.62,0.36l1.16,19.64l-0.04,0.02c-5.46-3.14-17.49-10.08-21.57-12.44l-1.37-19.74
									L517.05,954.54z"/>
								<path class="st154" d="M486.79,987.95l-0.18,0.07l-20.61-13.44l31.24-12.44l0-0.02c4.07,2.36,16.11,9.3,21.57,12.44
									L486.79,987.95z"/>
								<path class="st155" d="M516.4,933.58l0.02,0.01l1.22,20.73c-0.21,0.08-0.41,0.15-0.59,0.22l-21.19-12.17l-1.45-20.85
									L516.4,933.58z"/>
								<polygon class="st154" points="514.92,911.96 515.15,912.07 516.42,933.57 516.4,933.58 494.41,921.52 493,901.22 							"/>
								<path class="st154" d="M513.83,889.69l1.31,22.19l-0.22,0.07L493,901.22l-1.53-21.96c5.06,2.34,16.69,7.71,22.35,10.32
									L513.83,889.69z"/>
								<path class="st150" d="M512.54,867.74l1.29,21.84c-5.66-2.61-17.29-7.98-22.35-10.32l-1.5-21.61l22.53,9.5L512.54,867.74z"/>
								<polygon class="st155" points="511.14,843.99 512.5,867.14 489.97,857.65 488.38,834.75 511.13,843.84 							"/>
								<polygon class="st154" points="509.77,820.7 511.13,843.84 488.38,834.75 486.83,812.34 487.19,812.25 509.76,820.56
									"/>
								<polygon class="st154" points="486.61,988.02 486.8,988.15 488.17,1008.24 467.51,993.51 465.76,974.67 465.99,974.58
																"/>
							</g>
						</g>
					</g>
					<polyline class="st156" points="509.65,818.68 509.76,820.56 509.77,820.7 511.13,843.84 511.14,843.99 512.5,867.14
						512.54,867.74 513.83,889.58 513.83,889.69 515.14,911.88 515.15,912.07 516.42,933.57 516.42,933.59 517.64,954.32
						517.67,954.9 518.83,974.54 518.83,974.58 519.16,980.1 				"/>
					<polyline class="st156" points="545.35,901.45 546.13,922.03 546.92,942.88 547.66,962.48 548.4,981.94 548.48,984.06 				"/>
					<polyline class="st156" points="543.02,839.96 543.02,839.99 543.21,845.1 543.72,858.37 544.52,879.6 				"/>
					<polyline class="st156" points="541.88,809.96 541.99,812.8 541.99,812.88 542.84,835.26 543.02,839.95 				"/>
					<polyline class="st156" points="597.89,876.54 597.91,879.17 598.13,901.9 598.13,902.1 598.34,923.92 598.34,924.21
						598.56,946.99 598.57,947.59 598.77,968.79 598.77,968.89 598.97,989.56 598.98,989.88 599.17,1009.74 599.17,1010.3
						599.21,1013.92 				"/>
					<polyline class="st156" points="627.46,934.66 627.46,934.83 627.12,956.34 627.12,956.47 626.8,977.1 626.49,996.51
						626.42,1001.23 				"/>
					<polyline class="st156" points="628.53,865.97 628.48,868.98 628.48,869.13 628.45,871.04 628.45,871.08 628.14,890.83
						628.14,891.41 627.8,912.64 627.8,912.67 				"/>
					<polyline class="st156" points="655.48,969.46 655.48,990.28 655.48,990.43 655.48,993.57 				"/>
					<polyline class="st156" points="655.48,879.71 655.48,881.01 655.48,881.05 655.48,901.54 655.48,901.81 655.48,904.41 				"/>
					<polyline class="st156" points="679.15,914.06 678.53,933.47 678.46,935.45 				"/>
					<polyline class="st156" points="680.58,869.67 680.52,871.47 680.51,871.69 680.43,874.16 679.87,891.7 679.77,894.73
						679.19,912.8 679.15,914.05 				"/>
					<polyline class="st156" points="681.63,953.95 681.63,956.36 681.63,956.84 681.63,977.32 681.63,980.1 				"/>
					<g class="st146">
						<defs>
							<rect id="SVGID_109_" x="458" y="799" width="284" height="217.16"/>
						</defs>
						<clipPath id="SVGID_110_">
							<use xlink:href="#SVGID_109_"  style="overflow:visible;"/>
						</clipPath>
						<path class="st157" d="M703.92,962.83c-0.01,0.1-0.01,0.2-0.02,0.29c-0.01,0.18-0.02,0.35-0.03,0.49"/>
						<path class="st157" d="M703.96,962.16c-0.01,0.12-0.02,0.24-0.02,0.35"/>
						<path class="st157" d="M710.43,862.8c0,0.1-0.03,0.7-0.1,1.74c0,0.02,0,0.05,0,0.08c-0.2,3.22-0.66,10.4-1.25,19.52
							c-0.01,0.11-0.01,0.22-0.02,0.32c-0.4,6.14-0.86,13.14-1.33,20.38c0,0.02,0,0.03,0,0.05c-0.41,6.31-0.84,12.79-1.25,19.06v0.03
							c-0.48,7.32-0.94,14.34-1.34,20.4c0,0.03,0,0.06-0.01,0.08c-0.52,7.97-0.94,14.28-1.15,17.48c0,0.02,0,0.04-0.01,0.07"/>
						<polyline class="st157" points="703.83,964.25 703.87,963.61 703.9,963.12 703.92,962.83 703.94,962.51 703.96,962.16
							703.97,962.03 703.97,961.96 705.11,944.47 705.12,944.4 706.45,924 706.45,923.95 707.69,904.89 707.69,904.86 709.02,884.48
							709.04,884.13 710.31,864.62 710.32,864.55 710.43,862.8 					"/>
						<polyline class="st157" points="731.3,854.61 731.17,856.34 731.16,856.38 729.7,875.39 728.07,896.5 726.7,914.21
							725.08,935.33 723.86,951.03 723.64,953.95 					"/>
						<polyline class="st157" points="572.65,955.54 572.65,955.73 573.08,975.65 573.51,995.93 573.58,999.12 					"/>
						<polyline class="st157" points="571.2,888.16 571.26,890.72 571.3,892.52 571.72,912.1 572.2,934.74 572.2,934.77 					"/>
						<polyline class="st157" points="486.66,986.18 486.79,987.95 486.8,988.15 488.17,1008.24 488.25,1009.42 					"/>
						<polyline class="st157" points="465.53,972.17 465.74,974.41 465.76,974.67 467.51,993.51 467.91,997.8 					"/>
						<polyline class="st157" points="488.17,1008.24 548.4,981.94 548.48,981.91 573.51,995.93 598.63,1010 599.17,1010.3
							601.85,1011.8 					"/>
						<line class="st157" x1="486.66" y1="1008.9" x2="488.17" y2="1008.24"/>
						<polyline class="st157" points="466.85,993.04 467.51,993.51 488.17,1008.24 488.17,1008.24 489.83,1009.42 					"/>
						<polyline class="st157" points="464.74,973.76 465.74,974.41 465.99,974.58 486.61,988.02 486.8,988.15 489.04,989.61 					"/>
						<polyline class="st157" points="485.34,988.55 486.61,988.02 486.79,987.95 518.79,974.56 518.83,974.54 547.66,962.48
							548.48,962.13 573.08,975.65 598.66,989.7 598.98,989.88 601.85,991.46 					"/>
						<polyline class="st157" points="464.74,975.08 465.76,974.67 465.99,974.58 497.23,962.13 497.23,962.11 495.86,942.37
							494.41,921.52 493,901.22 491.48,879.26 489.97,857.65 488.38,834.75 486.83,812.34 486.81,812.12 486.66,809.96 					"/>
						<path class="st157" d="M495.91,961.34c0.15,0.09,0.62,0.36,1.32,0.77c4.07,2.36,16.11,9.3,21.57,12.44
							c0.01,0.01,0.03,0.02,0.04,0.02c1.66,0.96,2.7,1.56,2.7,1.56"/>
						<polyline class="st157" points="494.85,941.79 495.86,942.37 517.05,954.54 517.67,954.9 519.69,956.06 					"/>
						<polyline class="st157" points="493.8,921.19 494.41,921.52 516.4,933.58 516.42,933.59 518.37,934.66 					"/>
						<polyline class="st157" points="491.16,900.32 493,901.22 514.92,911.96 515.15,912.07 517.05,913 					"/>
						<path class="st157" d="M489.04,878.12c0.09,0.04,1,0.47,2.43,1.13c5.06,2.34,16.69,7.71,22.35,10.32
							c0.05,0.02,0.1,0.04,0.14,0.07c1.89,0.87,3.08,1.42,3.08,1.42"/>
						<polyline class="st157" points="489.04,857.25 489.97,857.65 512.5,867.14 513.35,867.5 515.99,868.61 					"/>
						<polyline class="st157" points="485.87,833.74 488.38,834.75 511.13,843.84 511.35,843.93 513.61,844.84 					"/>
						<polyline class="st157" points="484.55,811.28 486.81,812.12 487.19,812.25 509.76,820.56 509.95,820.63 512.55,821.59
							"/>
						<polyline class="st157" points="546.63,814.19 542.15,812.85 541.99,812.8 516.98,805.3 509.65,803.09 					"/>
						<path class="st157" d="M508.06,821.59c0.25-0.25,0.85-0.55,1.7-0.89c0.06-0.02,0.12-0.05,0.18-0.07
							c6.23-2.35,25.08-6.29,32.04-7.75c0.06-0.01,0.11-0.02,0.16-0.03c1.27-0.26,2.11-0.44,2.37-0.5"/>
						<polyline class="st157" points="484.55,812.87 486.83,812.34 487.19,812.25 516.98,805.3 520.74,804.42 					"/>
						<polyline class="st157" points="542.84,835.26 544.52,834.8 544.52,835.82 544.52,835.88 544.52,838.72 544.52,843.52
							543.21,845.1 					"/>
						<polyline class="st157" points="508.06,844.84 511.14,843.99 511.35,843.93 542.84,835.26 					"/>
						<polyline class="st157" points="543.72,858.37 513.35,867.5 512.54,867.74 509.65,868.61 					"/>
						<polyline class="st157" points="544.52,879.6 571.26,890.72 598.13,901.9 598.39,902 601.32,903.22 					"/>
						<polyline class="st157" points="509.65,891.07 513.83,889.69 513.97,889.65 544.52,879.6 					"/>
						<polyline class="st157" points="571.2,892.52 545.35,901.45 515.14,911.88 514.92,911.96 508.86,914.05 					"/>
						<polyline class="st157" points="513.61,934.66 516.4,933.58 516.42,933.57 546.13,922.03 571.72,912.1 598.34,923.92
							598.7,924.07 600.53,924.88 					"/>
						<polyline class="st157" points="601.32,948.93 598.57,947.59 597.9,947.26 572.2,934.74 546.13,922.03 					"/>
						<path class="st157" d="M515.72,955c0.06,0,0.54-0.17,1.33-0.46c0.18-0.07,0.38-0.14,0.59-0.22
							c6.79-2.55,29.28-11.45,29.28-11.45l25.73,12.86l26.12,13.05l0.11,0.06l2.44,1.22"/>
						<path class="st157" d="M572.26,845.89c-0.09,0-0.92-0.28-2.27-0.76c-0.03-0.01-0.07-0.02-0.11-0.04
							c-5.78-2.03-20.4-7.4-25.36-9.22c-0.03-0.01-0.06-0.02-0.08-0.03c-0.97-0.35-1.55-0.57-1.6-0.59h0"/>
						<polyline class="st157" points="567.51,845.89 569.88,845.17 569.99,845.14 598.98,836.32 599.37,836.21 600.53,835.85
							"/>
						<polyline class="st157" points="600.79,836.65 599.37,836.21 599,836.09 597.36,835.59 572.68,827.98 569.09,826.87 					"/>
						<polyline class="st157" points="575.69,827.14 572.68,827.98 544.52,835.82 544.44,835.85 543.46,836.12 					"/>
						<polyline class="st157" points="596.3,879.71 597.89,879.18 597.91,879.17 628.23,869.06 628.48,868.98 629.59,868.61 					"/>
						<path class="st157" d="M569.88,845.1v0.07c0.04,19.26,12.6,30.27,28,34.01"/>
						<path class="st157" d="M613.77,862.96c4.62,2.92,9.74,4.92,14.46,6.1c0.08,0.02,0.17,0.04,0.25,0.06
							c0.02,0.01,0.03,0.01,0.05,0.01"/>
						<path class="st157" d="M599,836.01c0,0.03,0,0.06-0.01,0.08c-0.01,0.08-0.01,0.16-0.01,0.23c-0.28,4.86,0.58,9.14,2.25,12.87
							c2.62,5.88,7.24,10.41,12.5,13.74"/>
						<path class="st157" d="M543.02,839.95C543.02,839.95,543.02,839.95,543.02,839.95c0,0.02,0,0.03,0,0.04
							c0.04,0.24,1.5-1.27,1.5-1.27"/>
						<path class="st157" d="M659.18,882.35c0,0-1.42-0.52-3.64-1.32c-0.02-0.01-0.04-0.01-0.06-0.02
							c-7.95-2.89-26.03-9.48-27.03-9.92c-0.03-0.01-0.05-0.02-0.05-0.03c0,0,0.02-0.01,0.05-0.02c0.22-0.08,1.12-0.38,2.46-0.84
							c3.93-1.33,11.66-3.93,17.18-5.79c2.22-0.75,4.09-1.38,5.21-1.75c0.01,0,0.01,0,0.02-0.01c0.71-0.24,1.11-0.38,1.11-0.38"/>
						<polyline class="st157" points="628.14,891.41 655.13,901.68 655.48,901.81 659.18,903.22 					"/>
						<polyline class="st157" points="682.43,872.31 680.51,871.69 680.22,871.59 655.48,863.49 653.37,862.8 					"/>
						<path class="st157" d="M653.89,881.56c0.1,0,0.67-0.19,1.59-0.51c0.02-0.01,0.04-0.01,0.06-0.02
							c4.87-1.74,19.16-7.29,24.68-9.44c0.1-0.04,0.2-0.08,0.3-0.12c1.2-0.47,1.91-0.74,1.91-0.74"/>
						<path class="st157" d="M627.75,912.66c0.02-0.01,0.04-0.02,0.06-0.02c9.02-3.6,18.73-7.5,27.33-10.96
							c0.12-0.05,0.23-0.1,0.35-0.14c11.98-4.82,21.75-8.77,24.39-9.84c0.46-0.19,0.71-0.29,0.71-0.29"/>
						<path class="st157" d="M596.3,924.88c0.13,0,0.85-0.24,2.04-0.68c0.12-0.04,0.24-0.08,0.36-0.13
							c4.81-1.78,16.22-6.29,29.04-11.41"/>
						<path class="st157" d="M596.3,947.87c0.06,0,0.62-0.21,1.6-0.61c0.2-0.08,0.43-0.17,0.66-0.27
							c4.68-1.91,16.05-6.71,28.89-12.16c20.9-8.87,45.68-19.45,51.74-22.03c0.9-0.38,1.38-0.59,1.38-0.59"/>
						<path class="st157" d="M596.3,902.69c0.11,0,0.76-0.22,1.83-0.59c0.08-0.03,0.17-0.06,0.26-0.1
							c6.23-2.22,24.47-9.16,29.75-11.18c0.92-0.35,1.45-0.55,1.45-0.55"/>
						<polyline class="st157" points="597.09,990.4 598.66,989.7 598.97,989.56 626.8,977.1 627.48,976.8 647.29,986.45
							655.33,990.36 655.48,990.43 657.59,991.46 					"/>
						<polyline class="st157" points="653.1,991.46 655.33,990.36 655.48,990.28 681.63,977.32 682.95,976.67 					"/>
						<path class="st157" d="M655.48,943.73c0-0.06,12,5.76,20.51,9.89c2.21,1.07,4.18,2.03,5.65,2.74c0.17,0.08,0.33,0.16,0.49,0.24
							c1.34,0.65,2.15,1.05,2.15,1.05"/>
						<path class="st157" d="M653.89,970.06c0.07,0.03,0.64-0.19,1.59-0.6c0.12-0.05,0.25-0.11,0.38-0.17
							c5.28-2.36,19.79-9.49,25.78-12.45c0.17-0.09,0.33-0.17,0.49-0.24c1.35-0.67,2.15-1.07,2.15-1.07"/>
						<polyline class="st157" points="627.12,956.47 655.86,969.29 657.59,970.06 					"/>
						<path class="st157" d="M680.58,951.77c7.15-3.2,20.08-9.45,20.08-9.45l1.32-19.29c0,0-9.83,4.38-23.45,10.44
							c-6.96,3.1-14.91,6.64-23.05,10.26c-9.65,4.29-19.54,8.69-28.36,12.61c-13.8,6.13-24.94,11.07-28.24,12.51
							c-0.04,0.02-0.08,0.03-0.11,0.05c-0.57,0.25-0.87,0.38-0.89,0.38"/>
						<path class="st157" d="M675.97,953.61c0.01,0,0.01,0.01,0.02,0.01c0.25,0.04,2.06-0.71,4.59-1.84"/>
						<polyline class="st157" points="680.58,951.77 680.58,951.77 703.97,961.96 703.98,961.96 704.04,961.99 706.2,962.93 					"/>
						<polyline class="st157" points="700.65,942.32 704,943.81 705.05,944.43 705.11,944.47 705.13,944.48 705.94,944.96 					"/>
						<polyline class="st157" points="703.3,962.4 703.97,962.03 704.04,961.99 723.86,951.03 725.75,949.98 					"/>
						<polyline class="st157" points="703.3,945.23 705.05,944.43 705.12,944.4 705.13,944.39 725.08,935.33 726.55,934.66 					"/>
						<polyline class="st157" points="679.19,912.8 706.45,923.95 706.48,923.96 706.5,923.97 709.37,925.15 					"/>
						<path class="st157" d="M679.15,914.05L679.15,914.05c0.18,0.55,22.83,8.98,22.83,8.98"/>
						<polyline class="st157" points="704.62,924.88 706.45,924 706.47,923.99 706.5,923.97 726.7,914.21 728.13,913.52 					"/>
						<polyline class="st157" points="679.52,894.64 679.77,894.73 707.66,904.88 707.69,904.89 707.72,904.9 709.64,905.6 					"/>
						<polyline class="st157" points="704.62,906.13 707.66,904.88 707.69,904.86 707.73,904.85 728.07,896.5 729.72,895.82 					"/>
						<polyline class="st157" points="680.43,874.16 709.04,884.13 709.08,884.14 709.48,884.28 712.28,885.26 					"/>
						<polyline class="st157" points="707.26,885.26 709.02,884.48 709.06,884.47 709.48,884.28 729.7,875.39 731.3,874.69 					"/>
						<polyline class="st157" points="606.87,832.42 608.19,832.83 631.38,840.05 631.69,840.14 655.41,847.53 655.48,847.55
							709.48,864.36 710.22,864.59 710.31,864.62 710.33,864.62 714.66,865.97 					"/>
						<polyline class="st157" points="708.05,865.44 710.22,864.59 710.32,864.55 710.33,864.54 731.12,856.36 731.17,856.34
							732.89,855.67 					"/>
						<path class="st157" d="M601.23,849.2c0.05,0.07,15.48-4.55,30.15-8.96c0.1-0.03,0.21-0.06,0.31-0.09
							c8.31-2.5,16.33-4.92,21.13-6.36c2.81-0.85,4.51-1.36,4.51-1.36"/>
						<polyline class="st157" points="608.19,812.34 608.19,813.27 608.19,813.55 608.19,832.83 608.19,832.84 608.19,833.44
							"/>
						<path class="st157" d="M597.36,835.59L597.36,835.59c0.99-0.01,10.76-2.52,10.83-2.75c0.01,0,0-0.01,0-0.01"/>
						<polyline class="st157" points="633.02,820.8 631.68,820.4 631.27,820.28 608.19,813.55 607.66,813.4 608.19,813.27
							627.48,808.65 629.53,808.16 633.02,807.32 					"/>
						<path class="st157" d="M630.91,870.2c0.01-0.02,0.08-4.95,0.19-11.76c0.08-5.39,0.18-11.97,0.28-18.21c0-0.06,0-0.13,0-0.19
							c0.13-8.48,0.25-16.3,0.3-19.65c0-0.08,0-0.17,0.01-0.24c0.01-0.95,0.02-1.48,0.02-1.48"/>
						<polyline class="st157" points="653.89,813.4 653.29,813.58 652.59,813.79 631.68,820.16 631.27,820.28 629.59,820.8 					"/>
						<polyline class="st157" points="653.37,810.23 653.29,813.58 653.28,813.97 652.81,833.78 676.88,840.72 731.12,856.36
							731.16,856.38 734.21,857.25 					"/>
						<path class="st157" d="M625.36,807.32c0.12-0.06,1.73,0.28,4.16,0.84c6.08,1.4,17.28,4.19,23.07,5.64
							c0.24,0.06,0.47,0.12,0.68,0.17c1.85,0.46,2.99,0.75,2.99,0.75"/>
						<polyline class="st157" points="680.58,839.55 676.88,840.72 655.48,847.5 655.41,847.53 653.89,848.01 					"/>
						<polyline class="st157" points="655.48,845.1 655.48,847.5 655.48,847.55 655.48,863.49 					"/>
						<path class="st157" d="M648.08,864.39l-16.98-5.94l-0.19-0.07c0,0-15.9,5.06-17.14,4.59c-0.02-0.01-0.03-0.02-0.04-0.03"/>
						<polyline class="st157" points="597.09,1010.75 598.63,1010 599.17,1009.74 626.49,996.51 647.29,986.45 					"/>
					</g>
				</g>
			</g>
			<!-- <g id="Dezentrale_Livestreams_x5F_Schrift">
				<rect id="Rahmen_12_" x="593.48" y="902.18" class="st20" width="164" height="43"/>
				<rect id="Rahmen_11_" x="593.48" y="962.18" class="st158" width="223" height="43"/>
				<g>
					<text transform="matrix(1 0 0 1 601.2439 939.7188)"><tspan x="0" y="0" class="st21 st22">{{ site.data.map.events.one }}</tspan><tspan x="0" y="57.6" class="st21 st22">{{ site.data.map.events.two }}</tspan></text>
				</g>
			</g> -->
		</g>
</svg>
