<svg version="1.1" xmlns="http://www.w3.org/2000/svg" xmlns:xlink="http://www.w3.org/1999/xlink"
	width="197" height="234.86"
	viewBox="456 0 197 234.86"
	preserveAspectRatio="none"
	class="map">
		<g id="Kongressticker">
			<g>
				<g>
					<defs>
						<rect id="SVGID_151_" x="456" y="0" width="197" height="234.86"/>
					</defs>
					<clipPath id="SVGID_152_">
						<use xlink:href="#SVGID_151_"  style="overflow:visible;"/>
					</clipPath>
					<g class="st201">
						<defs>
							<rect id="SVGID_153_" x="456" y="0" width="197" height="234.86"/>
						</defs>
						<clipPath id="SVGID_154_">
							<use xlink:href="#SVGID_153_"  style="overflow:visible;"/>
						</clipPath>
						<g class="st202">
							<defs>
								<rect id="SVGID_155_" x="466.12" y="12.63" width="175.78" height="212.91"/>
							</defs>
							<clipPath id="SVGID_156_">
								<use xlink:href="#SVGID_155_"  style="overflow:visible;"/>
							</clipPath>
							<g class="st203">
								<defs>
									<rect id="SVGID_157_" x="466.12" y="12.63" width="175.78" height="212.91"/>
								</defs>
								<clipPath id="SVGID_158_">
									<use xlink:href="#SVGID_157_"  style="overflow:visible;"/>
								</clipPath>
								<polygon class="st204" points="626.27,191.67 641.86,180.92 641.89,180.92 641.44,198.4 626.23,209.08 626.23,191.71
									"/>
								<polygon class="st205" points="626.23,191.66 597.09,184.17 597.09,183.89 613.53,174.06 613.53,174.21 641.86,180.92
									626.27,191.67 							"/>
								<polygon class="st205" points="626.23,191.71 626.23,209.08 626.08,209.18 597.09,202.11 597.09,184.17 626.23,191.66
																"/>
								<path class="st206" d="M597.14,26.44l0-0.07l17.88-4.72v19.31c-4.66,1.42-13.17,4.02-17.27,5.3L597.14,26.44z"/>
								<polygon class="st207" points="597.14,26.37 596.94,26.42 490.81,16.7 490.8,16.61 508.28,12.63 615.02,21.65 615.02,21.65
																"/>
								<path class="st208" d="M597.35,88l-0.03,0.01l-27.28-4.37c4.3-1.5,14-5.12,16.96-6.23l27.02,3.4v0.1L597.35,88z"/>
								<polygon class="st209" points="597.35,88.02 597.35,88 614.02,80.92 613.92,100.01 597.5,107.74 							"/>
								<polygon class="st209" points="597.5,107.75 597.5,107.74 613.92,100.01 613.82,119.02 597.66,126.99 							"/>
								<polygon class="st209" points="597.66,127.05 597.66,126.99 613.82,119.02 613.72,137.31 597.81,145.98 							"/>
								<polygon class="st204" points="597.09,165.25 593.6,167.18 593.55,167.18 593.38,159.76 593.47,159.71 593.38,159.69
									578.68,156.41 597.77,146.01 597.81,146.01 597.81,145.98 613.72,137.31 613.62,156.06 							"/>
								<polygon class="st209" points="613.62,156.06 613.53,174.06 597.09,183.89 597.09,165.25 							"/>
								<polygon class="st208" points="597.56,127.04 597.66,127.05 597.81,145.98 597.77,146.01 569.93,140.44 569.78,121.87
																"/>
								<polygon class="st205" points="569.94,140.59 569.93,140.59 569.93,140.44 597.77,146.01 578.68,156.41 578.67,156.41
									550.93,150.22 550.97,150.06 							"/>
								<path class="st207" d="M515.93,37.53l-24.29-2.62l-0.84-18.21l106.13,9.71l0.2,0.02l0.61,19.83
									c-0.06,0.02-0.13,0.04-0.19,0.06l-38.32-4.13l-17.78-1.92L515.93,37.53z"/>
								<polygon class="st208" points="597.48,107.75 597.5,107.75 597.66,126.99 597.56,127.04 569.78,121.87 569.69,111.23
									569.62,102.89 							"/>
								<path class="st208" d="M597.32,88.01l0.03,0l0.16,19.72l-0.02,0.01l-27.87-4.86l-0.16-19.05c0.18-0.06,0.37-0.13,0.58-0.2h0
									L597.32,88.01z"/>
								<polygon class="st206" points="559.64,206.42 559.64,206.3 597.09,183.89 597.09,184.17 597.09,202.11 559.94,225.52
									"/>
								<polygon class="st206" points="593.8,178.91 593.55,167.18 593.6,167.18 597.09,165.25 597.09,183.89 559.64,206.3
									559.32,186.33 574.53,190.22 574.57,190.24 574.57,190.2 							"/>
								<polygon class="st204" points="573.77,170.83 573.77,170.73 593.38,159.76 593.55,167.18 593.8,178.91 574.57,190.2
									"/>
								<polygon class="st205" points="573.77,170.73 573.64,170.8 466.12,144.32 466.12,144.18 486.95,135.96 499.48,138.75
									524.11,144.24 524.12,144.33 524.23,144.27 543.92,148.66 550.93,150.22 578.67,156.41 578.68,156.41 593.38,159.69
									593.38,159.76 							"/>
								<polygon class="st205" points="479.55,165.92 466.79,162.66 466.12,144.32 573.64,170.8 573.77,170.83 574.57,190.2
									574.53,190.22 559.32,186.33 531.6,179.24 528.47,178.44 504.5,172.31 							"/>
								<polygon class="st206" points="569.94,140.59 550.97,150.06 550.93,150.22 543.92,148.66 543.61,135.17 569.93,140.44
									569.93,140.59 							"/>
								<polygon class="st206" points="569.78,121.87 569.93,140.44 543.61,135.17 543.19,116.92 							"/>
								<polygon class="st206" points="569.69,111.23 569.78,121.87 543.19,116.92 543.19,116.73 559.98,109.79 							"/>
								<polygon class="st206" points="542.85,97.61 559.77,91.24 559.98,109.79 543.19,116.73 542.75,97.64 							"/>
								<polygon class="st207" points="559.5,206.38 559.64,206.42 559.94,225.52 559.89,225.55 532.51,217.19 532.07,198.81
									"/>
								<path class="st204" d="M542.33,78.85v-0.05c4.18-1.31,13.67-4.67,17.25-5.94l0.2,18.39l-16.93,6.37l-0.1-0.01L542.33,78.85z"
									/>
								<polygon class="st207" points="559.32,186.33 559.64,206.3 559.5,206.38 532.07,198.81 531.98,194.87 531.6,179.24
									"/>
								<path class="st206" d="M542.39,59.74l16.98-5.32l0.2,18.43c-3.58,1.27-13.06,4.63-17.25,5.94l-0.43-18.9L542.39,59.74z"/>
								<path class="st204" d="M559.23,42.2l0.13,12.23l-16.98,5.32c-0.16-0.02-0.33-0.04-0.5-0.07l-0.44-19.39L559.23,42.2z"/>
								<polygon class="st210" points="543.61,135.17 543.92,148.66 524.23,144.27 543.29,135.11 							"/>
								<polygon class="st204" points="523.72,124.78 542.88,116.86 543.19,116.92 543.61,135.17 543.29,135.11 524.23,144.27
									524.11,144.24 523.41,124.91 							"/>
								<polygon class="st207" points="542.75,97.64 543.19,116.73 542.88,116.86 518.04,112.24 518.14,112.2 517.6,93.88
									542.75,97.59 							"/>
								<polygon class="st205" points="523.4,124.72 498.77,119.88 498.76,119.67 518.04,112.24 542.88,116.86 523.72,124.78
									"/>
								<polygon class="st205" points="542.21,78.83 542.33,78.85 542.75,97.59 517.6,93.88 517.04,75.09 							"/>
								<path class="st207" d="M541.9,59.9l0.43,18.9c-0.04,0.01-0.08,0.02-0.11,0.03l-25.17-3.74l-0.56-18.88
									c5.67,0.7,18.29,2.46,25.41,3.46L541.9,59.9z"/>
								<path class="st205" d="M541.45,40.28l0.44,19.39c-7.12-1-19.74-2.76-25.41-3.46l-0.55-18.68L541.45,40.28z"/>
								<polygon class="st204" points="504.84,190.73 504.83,190.63 528.47,178.44 531.6,179.24 531.98,194.87 531.59,194.88
									505.3,209.24 505.17,209.2 							"/>
								<polygon class="st206" points="504.5,172.31 528.47,178.44 504.83,190.63 							"/>
								<polygon class="st205" points="523.41,124.91 524.11,144.24 499.48,138.75 498.77,119.88 523.4,124.72 							"/>
								<polygon class="st205" points="504.72,190.69 504.84,190.73 505.17,209.2 480.96,201.52 480.24,183.43 							"/>
								<polygon class="st207" points="504.5,172.31 504.83,190.63 504.72,190.69 480.24,183.43 479.55,165.92 							"/>
							</g>
						</g>
					</g>
					<polyline class="st211" points="489.25,16.56 490.52,16.68 490.81,16.7 596.94,26.42 597.14,26.44 600.82,26.77 				"/>
					<polyline class="st211" points="487.75,34.49 491.64,34.91 515.93,37.53 541.45,40.28 559.23,42.2 597.55,46.33 597.75,46.35
						603.31,46.95 				"/>
					<g class="st201">
						<defs>
							<rect id="SVGID_159_" x="456" y="0" width="197" height="234.86"/>
						</defs>
						<clipPath id="SVGID_160_">
							<use xlink:href="#SVGID_159_"  style="overflow:visible;"/>
						</clipPath>
						<path class="st212" d="M513.66,55.91c0.28,0,1.3,0.11,2.83,0.3c5.67,0.7,18.29,2.46,25.41,3.46c0.17,0.02,0.34,0.05,0.5,0.07
							c2.8,0.4,4.63,0.65,4.63,0.65"/>
						<polyline class="st212" points="513.66,74.59 517.04,75.09 542.21,78.83 542.33,78.85 545.53,79.32 					"/>
						<polyline class="st212" points="515.15,93.52 517.6,93.88 542.75,97.59 542.85,97.61 545.53,98 					"/>
						<polyline class="st212" points="515.15,111.7 518.04,112.24 542.88,116.86 543.19,116.92 569.78,121.87 597.56,127.04
							597.66,127.05 604.81,128.39 					"/>
						<polyline class="st212" points="578.68,156.41 593.38,159.69 593.47,159.71 597.09,160.51 					"/>
						<polyline class="st212" points="482.03,134.86 486.95,135.96 499.48,138.75 524.11,144.24 524.23,144.27 543.92,148.66
							550.93,150.22 578.67,156.41 					"/>
						<polyline class="st212" points="463.1,143.58 465.89,144.27 466.12,144.32 573.64,170.8 573.77,170.83 578.41,171.97 					"/>
						<polyline class="st212" points="460.36,161.01 466.79,162.66 479.55,165.92 504.5,172.31 528.47,178.44 531.6,179.24
							559.32,186.33 574.53,190.22 574.57,190.24 577.16,190.9 					"/>
						<polyline class="st212" points="478.54,182.93 480.24,183.43 504.72,190.69 504.84,190.73 507.93,191.65 					"/>
						<polyline class="st212" points="477.29,200.36 480.96,201.52 505.17,209.2 505.3,209.24 507.93,210.08 					"/>
						<polyline class="st212" points="529.59,198.12 532.07,198.81 559.5,206.38 559.64,206.42 562.97,207.34 					"/>
						<polyline class="st212" points="529.59,216.3 532.51,217.19 559.89,225.55 559.94,225.56 567.95,228.01 					"/>
						<polyline class="st212" points="597.09,184.17 626.23,191.66 626.27,191.67 632.95,193.39 					"/>
						<polyline class="st212" points="597.09,202.11 626.08,209.18 626.23,209.21 627.72,209.58 					"/>
						<polyline class="st212" points="613.53,174.21 641.86,180.92 641.89,180.92 646.15,181.93 					"/>
						<polyline class="st212" points="568.7,102.73 569.62,102.89 597.48,107.75 597.5,107.75 601.57,108.46 					"/>
						<polyline class="st212" points="570.04,83.64 597.32,88.01 597.35,88.02 600.57,88.54 					"/>
						<polyline class="st212" points="567.95,83.31 569.45,83.55 570.03,83.64 					"/>
						<polyline class="st212" points="584.39,77.08 587,77.41 614.02,80.81 614.21,80.84 616.02,81.07 					"/>
						<polyline class="st212" points="497.72,119.67 498.41,119.81 498.77,119.88 523.4,124.72 523.72,124.78 526.86,125.4 					"/>
						<polyline class="st212" points="616.76,21.79 615.03,21.65 615.02,21.65 508.28,12.63 501.7,12.08 					"/>
						<polyline class="st212" points="466.09,143.33 466.12,144.18 466.12,144.32 466.79,162.66 466.83,163.75 					"/>
						<polyline class="st212" points="479.53,165.42 479.55,165.92 480.24,183.43 480.96,201.52 481.03,203.35 					"/>
						<polyline class="st212" points="504.49,171.81 504.5,172.31 504.83,190.63 504.84,190.73 505.17,209.2 505.17,209.31
							505.19,210.08 					"/>
						<polyline class="st212" points="531.59,194.88 505.3,209.24 505.17,209.31 501.95,211.07 					"/>
						<polyline class="st212" points="531.59,178.74 531.6,179.24 531.98,194.87 532.07,198.81 532.51,217.19 532.58,220.04 					"/>
						<polyline class="st212" points="559.31,185.83 559.32,186.33 559.64,206.3 559.64,206.42 559.94,225.52 559.94,225.56
							559.98,228.01 					"/>
						<polyline class="st212" points="498.71,118.42 498.76,119.67 498.77,119.88 499.48,138.75 					"/>
						<polyline class="st212" points="523.37,123.9 523.4,124.72 523.41,124.91 524.11,144.24 524.12,144.33 524.23,144.27
							543.29,135.11 543.61,135.17 569.93,140.44 597.77,146.01 597.81,146.01 600.57,146.57 					"/>
						<polyline class="st212" points="521.63,125.65 523.41,124.91 523.72,124.78 542.88,116.86 543.19,116.73 559.98,109.79
							566.21,107.22 					"/>
						<polyline class="st212" points="515.91,36.96 515.93,37.53 516.48,56.21 517.04,75.09 517.6,93.88 518.14,112.2 					"/>
						<polyline class="st212" points="541.44,39.88 541.45,40.28 541.89,59.67 541.9,59.9 542.33,78.8 542.33,78.85 542.75,97.59
							542.75,97.64 543.19,116.73 543.19,116.92 543.61,135.17 543.92,148.66 					"/>
						<polyline class="st212" points="559.23,41.91 559.23,42.2 559.37,54.42 559.57,72.85 559.77,91.24 559.98,109.79
							569.69,111.23 					"/>
						<polyline class="st212" points="490.74,15.32 490.8,16.61 490.81,16.7 491.64,34.91 491.74,36.98 					"/>
						<polyline class="st212" points="597.09,24.78 597.14,26.37 597.14,26.44 597.75,46.26 597.75,46.35 597.84,49.19 					"/>
						<polyline class="st212" points="615.02,20.3 615.02,21.65 615.02,21.65 615.02,40.96 615.02,41.97 					"/>
						<path class="st212" d="M595.59,46.95c0.32-0.11,1.01-0.33,1.96-0.62c0.06-0.02,0.13-0.04,0.19-0.06
							c4.11-1.28,12.61-3.88,17.27-5.3c1.96-0.6,3.24-0.99,3.24-0.99"/>
						<polyline class="st212" points="595.59,26.77 596.94,26.42 597.14,26.37 615.02,21.65 615.03,21.65 618.26,20.8 					"/>
						<polyline class="st212" points="487.75,17.31 490.52,16.68 490.8,16.61 508.28,12.63 512.91,11.58 					"/>
						<polyline class="st212" points="597.34,86.79 597.35,88 597.35,88.02 597.5,107.74 597.5,107.75 597.66,126.99 597.66,127.05
							597.81,145.98 597.81,146.01 597.84,149.68 					"/>
						<polyline class="st212" points="597.09,163 597.09,165.25 597.09,183.89 597.09,184.17 597.09,202.11 597.09,204.1 					"/>
						<polyline class="st212" points="593.35,158.27 593.38,159.69 593.38,159.76 593.55,167.18 593.8,178.91 593.85,181.19 					"/>
						<polyline class="st212" points="573.68,168.48 573.77,170.73 573.77,170.83 574.57,190.2 574.57,190.24 574.67,192.64 					"/>
						<polyline class="st212" points="614.52,173.46 613.53,174.06 597.09,183.89 559.64,206.3 559.5,206.38 558.73,206.84 					"/>
						<polyline class="st212" points="597.09,202.11 559.94,225.52 559.89,225.55 555.99,228.01 					"/>
						<polyline class="st212" points="594.6,178.45 593.8,178.91 574.57,190.2 574.53,190.22 571.68,191.89 					"/>
						<polyline class="st212" points="572.43,171.47 573.64,170.8 573.77,170.73 593.38,159.76 593.47,159.71 595.59,158.52 					"/>
						<polyline class="st212" points="528.47,178.44 504.83,190.63 504.72,190.69 500.46,192.89 					"/>
						<polyline class="st212" points="486.95,135.96 466.12,144.18 465.89,144.27 463.85,145.07 					"/>
						<polyline class="st212" points="497.47,120.17 498.41,119.81 498.76,119.67 518.04,112.24 518.14,112.2 					"/>
						<polyline class="st212" points="596.09,88.54 597.32,88.01 597.35,88 614.02,80.92 614.21,80.84 616.02,80.07 					"/>
						<path class="st212" d="M567.95,84.3c0,0.04,0.57-0.13,1.51-0.46c0.18-0.06,0.37-0.13,0.58-0.2h0c4.3-1.5,14-5.12,16.96-6.23
							c0.56-0.21,0.88-0.33,0.88-0.33"/>
						<polyline class="st212" points="569.44,82.31 569.45,83.55 569.46,83.84 569.62,102.89 569.69,111.23 569.78,121.87
							569.93,140.44 569.93,140.59 					"/>
						<polyline class="st212" points="596.92,108.02 597.48,107.75 597.5,107.74 613.92,100.01 615.02,99.5 					"/>
						<polyline class="st212" points="596.84,127.39 597.56,127.04 597.66,126.99 613.82,119.02 615.02,118.42 					"/>
						<polyline class="st212" points="615.02,136.6 613.72,137.31 597.81,145.98 597.77,146.01 578.68,156.41 578.67,156.41 					"/>
						<polyline class="st212" points="615.02,155.28 613.62,156.06 597.09,165.25 593.6,167.18 					"/>
						<polyline class="st212" points="614.02,80.07 614.02,80.81 614.02,80.92 613.92,100.01 613.82,119.02 613.72,137.31
							613.62,156.06 613.53,174.06 613.53,174.21 					"/>
						<polyline class="st212" points="641.92,179.94 641.89,180.89 641.89,180.92 641.44,198.4 641.42,199.37 					"/>
						<polyline class="st212" points="626.23,190.15 626.23,191.66 626.23,191.71 626.23,209.08 626.23,209.21 626.23,210.32
							"/>
						<polyline class="st212" points="625.23,192.39 626.23,191.71 626.27,191.67 641.86,180.92 641.89,180.89 642.91,180.19
							"/>
						<polyline class="st212" points="642.91,197.37 641.44,198.4 626.23,209.08 626.08,209.18 623.74,210.82 					"/>
						<polyline class="st212" points="540.3,60.4 541.9,59.9 542.39,59.74 559.37,54.42 560.98,53.92 					"/>
						<path class="st212" d="M540.3,79.32c0.09,0.04,0.8-0.15,1.91-0.49c0.04-0.01,0.07-0.02,0.11-0.03
							c4.18-1.31,13.67-4.67,17.25-5.94c0.88-0.31,1.4-0.5,1.4-0.5"/>
						<polyline class="st212" points="541.8,98 542.75,97.64 542.85,97.61 559.77,91.24 562.97,90.03 					"/>
						<polyline class="st212" points="550.97,150.06 569.94,140.59 569.94,140.59 					"/>
					</g>
				</g>
			</g>
			<!-- <g id="Kongressticker_x5F_Schrift">
				<polygon id="Rahmen_4_" class="st213" points="722,183.18 513,187.18 513,144.18 722,140.18 			"/>
				<text transform="matrix(1 0 0 1 518.0756 180.8784)" class="st21 st22">{{ site.data.map.ticker.one }}</text>
			</g> -->
		</g>
</svg>
