<svg version="1.1" xmlns="http://www.w3.org/2000/svg" xmlns:xlink="http://www.w3.org/1999/xlink"
	width="362" height="348.17"
	viewBox="430 298 362 348.17"
	preserveAspectRatio="none"
	class="map">
		<g id="Willkommensportal">
			<g>
				<g>
					<defs>
						<rect id="SVGID_11_" x="430" y="298" width="362" height="348.17"/>
					</defs>
					<clipPath id="SVGID_12_">
						<use xlink:href="#SVGID_11_"  style="overflow:visible;"/>
					</clipPath>
					<g class="st23">
						<defs>
							<rect id="SVGID_13_" x="430" y="298" width="362" height="348.17"/>
						</defs>
						<clipPath id="SVGID_14_">
							<use xlink:href="#SVGID_13_"  style="overflow:visible;"/>
						</clipPath>
						<g class="st24">
							<defs>
								<rect id="SVGID_15_" x="437.27" y="307.4" width="344.63" height="332.93"/>
							</defs>
							<clipPath id="SVGID_16_">
								<use xlink:href="#SVGID_15_"  style="overflow:visible;"/>
							</clipPath>
							<g class="st25">
								<defs>
									<rect id="SVGID_17_" x="437.27" y="307.4" width="344.63" height="332.93"/>
								</defs>
								<clipPath id="SVGID_18_">
									<use xlink:href="#SVGID_17_"  style="overflow:visible;"/>
								</clipPath>
								<polygon class="st26" points="437.27,563.99 437.27,564.09 468.47,568.35 468.47,546.01 437.27,541.76 							"/>
								<path class="st26" d="M437.27,541.76l31.2,4.25l21.21-7.79l0.17-0.06c-13.05-1.43-24.06-2.63-32.02-3.49L437.27,541.76z"/>
								<path class="st27" d="M457.83,512.05v22.61c7.96,0.87,18.97,2.07,32.02,3.49h0c10.02,1.1,21.24,2.32,33.21,3.63l0-0.03V519.1
									l-34.05-3.68L457.83,512.05z"/>
								<polygon class="st26" points="457.83,490.13 457.83,512.05 489.02,515.42 489.03,515.34 489.03,493.23 489.03,493.23
									"/>
								<polygon class="st26" points="457.83,490.13 489.03,493.23 489.03,493.23 489.03,493.18 507.47,487.86 507.47,487.69
									478.03,484.95 							"/>
								<polygon class="st28" points="468.47,546.01 468.47,568.35 489.74,559.67 489.74,538.39 489.68,538.22 							"/>
								<polygon class="st27" points="507.47,508.78 489.03,515.34 489.02,515.42 523.07,519.1 523.07,510.26 							"/>
								<polygon class="st28" points="489.03,493.23 489.03,515.34 507.47,508.78 507.47,487.86 489.03,493.18 							"/>
								<path class="st26" d="M489.68,538.22l0.06,0.17v21.28v0.17l67.67,8.85h0.05v-23.14c-11.85-1.3-23.44-2.57-34.4-3.77
									c-11.97-1.3-23.19-2.53-33.21-3.63h0L489.68,538.22z"/>
								<path class="st29" d="M523.07,541.76l0,0.03c10.96,1.2,22.54,2.47,34.4,3.77v-22.72l-34.34-3.72l-0.05-0.01V541.76z"/>
								<polygon class="st29" points="523.07,510.26 523.07,519.1 523.12,519.11 557.46,522.83 557.46,500.04 523.07,496.62
									"/>
								<polygon class="st29" points="523.07,473.28 523.07,496.62 557.46,500.04 557.46,476.37 							"/>
								<polygon class="st29" points="523.07,449.96 523.07,473.28 557.46,476.37 557.46,452.63 							"/>
								<polygon class="st29" points="523.07,427.05 523.07,449.96 557.46,452.63 557.46,429.18 							"/>
								<polygon class="st29" points="523.07,402.8 523.07,427.05 557.46,429.18 557.46,404.54 557.47,404.49 							"/>
								<polygon class="st29" points="523.07,379.08 523.07,402.8 557.47,404.49 574.12,405.31 594.69,406.32 594.69,381.95
									557.46,380.46 							"/>
								<polygon class="st29" points="523.07,355.81 523.07,379.08 557.46,380.46 557.46,380.46 557.46,356.58 540.8,356.21
									"/>
								<path class="st29" d="M540.8,332.92v23.28l16.66,0.38l75.84,1.71l18.83,0.43v-0.26v-25.53h-0.18h-4.38h-16.54
									c-12.03-4.2-19.16-15.24-17.73-25.53h-35.28c-0.15,2.72-0.95,10.68-7.09,17.73c-3.95,4.53-8.42,6.76-10.99,7.8H540.8z"/>
								<polygon class="st28" points="557.46,568.69 557.46,568.7 573.42,560.41 573.52,538.57 573.42,538.57 557.46,545.55
									"/>
								<polygon class="st30" points="557.46,522.83 557.46,545.55 573.42,538.57 573.52,538.57 573.62,515.94 							"/>
								<polygon class="st30" points="557.46,500.04 557.46,522.83 573.62,515.94 573.72,493.56 							"/>
								<polygon class="st30" points="557.46,476.37 557.46,500.04 573.72,493.56 573.82,470.85 573.77,470.85 							"/>
								<polygon class="st30" points="557.46,452.63 557.46,476.37 573.77,470.85 573.82,470.85 573.92,448.15 573.77,448.15
									"/>
								<polygon class="st30" points="557.46,429.18 557.46,452.63 573.77,448.15 573.92,448.15 574.03,425.2 573.95,425.2
									"/>
								<polygon class="st30" points="557.46,404.54 557.46,429.18 573.95,425.2 574.03,425.2 574.12,405.31 557.47,404.49
									"/>
								<polygon class="st29" points="594.69,381.95 632.33,383.47 633.3,358.29 557.46,356.58 557.46,380.46 557.46,380.46
									"/>
								<polygon class="st29" points="594.69,381.95 594.69,406.32 633.35,408.22 671.16,410.07 671.16,410.01 671.57,385.04
									632.33,383.47 							"/>
								<path class="st30" d="M613.3,307.4c-1.43,10.29,5.7,21.33,17.73,25.53h16.54c-9.47-1.3-18.23-11.46-18.49-24.46l-15.6-1.06
									H613.3z"/>
								<path class="st27" d="M631.52,553.67l-0.31,24.68h0.03l7.1,0.93l0.64-24.79C636.52,554.22,634.03,553.95,631.52,553.67"/>
								<path class="st27" d="M631.81,530.86l-0.28,22.8c2.51,0.28,5,0.55,7.46,0.82c0.01,0,0.02,0,0.03,0l16.65-10.95l13.18-8.67
									L631.81,530.86z"/>
								<polygon class="st29" points="632.1,507.46 631.81,530.86 668.83,534.87 669.15,534.66 669.53,511.18 							"/>
								<polygon class="st29" points="632.4,483.08 632.1,507.46 669.53,511.18 669.93,486.45 							"/>
								<polygon class="st29" points="671.56,385 671.98,359.16 652.13,358.71 633.3,358.29 632.33,383.47 671.56,385.04 							"/>
								<polygon class="st29" points="632.71,458.48 632.4,483.08 669.93,486.45 670.33,461.44 670.33,461.41 							"/>
								<polygon class="st29" points="633.02,433.86 632.71,458.48 670.33,461.41 670.74,436.2 							"/>
								<polygon class="st29" points="633.34,408.44 633.02,433.86 670.74,436.2 671.16,410.07 633.35,408.22 							"/>
								<polygon class="st27" points="637.66,605.93 637.66,605.94 680.49,611.73 680.49,584.83 638.34,579.28 							"/>
								<path class="st29" d="M680.49,584.83l45.02,5.93l0.01-0.07v-26.59c-1.67-0.26-39.29-4.41-86.51-9.6c-0.01,0-0.02,0-0.03,0
									l-0.64,24.79L680.49,584.83z"/>
								<path class="st29" d="M695.96,548.35l-40.31-4.81l-16.65,10.95c47.22,5.19,84.84,9.35,86.51,9.6l13.12-10.64l-17.38-2.08
									L695.96,548.35z"/>
								<polygon class="st29" points="652.13,358.45 652.13,358.71 671.98,359.16 686.52,357.39 667.02,357.13 666.99,357.13
									"/>
								<path class="st30" d="M652.13,332.92v25.53l14.87-1.32v0c-0.08-6.06-0.27-23.62,0.02-24.21H652.13z"/>
								<polygon class="st26" points="655.66,543.54 695.96,548.35 709.63,539.37 709.57,539.27 668.83,534.87 							"/>
								<polygon class="st29" points="668.83,534.87 709.57,539.27 709.57,515.16 669.93,511.22 669.53,511.18 669.15,534.67
									"/>
								<polygon class="st30" points="669.93,486.45 669.53,511.18 669.93,511.22 682.62,503.82 682.62,503.77 683.25,480.22
									"/>
								<polygon class="st30" points="670.33,461.44 669.93,486.45 683.25,480.22 683.9,455.6 							"/>
								<polygon class="st29" points="669.93,511.22 709.57,515.16 722.68,507.72 682.66,503.77 682.62,503.77 682.62,503.82
									"/>
								<polygon class="st30" points="670.33,461.41 670.33,461.44 683.9,455.6 684.55,431.42 670.74,436.2 							"/>
								<polygon class="st30" points="671.16,410.07 670.74,436.2 684.55,431.42 685.21,406.64 671.2,410.01 671.16,410.01
									"/>
								<polygon class="st30" points="671.56,385.04 671.16,410.01 671.2,410.01 685.21,406.64 685.86,382.13 671.56,385 							"/>
								<polygon class="st30" points="671.98,359.16 671.56,385 685.86,382.13 686.52,357.39 							"/>
								<polygon class="st26" points="680.49,584.83 680.49,611.73 711.69,615.94 711.69,605.93 727.66,591.05 727.65,591.04
									725.51,590.76 							"/>
								<polygon class="st28" points="695.96,548.35 721.26,551.38 721.27,551.33 721.92,531.3 721.9,531.3 709.63,539.37 							"/>
								<polygon class="st30" points="709.57,515.16 709.57,539.27 709.63,539.37 721.9,531.3 721.92,531.3 722.68,507.72 							"/>
								<polygon class="st27" points="711.69,615.94 711.69,632.88 759.2,640.32 759.2,613.38 711.69,605.93 							"/>
								<polygon class="st27" points="711.69,605.93 759.2,613.38 781.9,586.08 737.58,581.82 727.66,591.05 							"/>
								<polygon class="st30" points="725.52,590.68 725.51,590.76 727.65,591.04 727.66,591.05 737.58,581.82 738.64,553.46
									725.52,564.09 							"/>
								<polygon class="st31" points="759.2,613.38 759.2,640.32 781.9,612.67 781.9,586.08 							"/>
							</g>
						</g>
					</g>
					<polygon class="st32" points="759.2,613.38 711.69,605.93 711.69,615.94 711.69,632.88 759.2,640.32 				"/>
					<polyline class="st32" points="557.46,404.54 557.46,429.18 557.46,452.63 557.46,476.37 557.46,500.04 557.46,522.83
						557.46,545.55 557.46,568.69 557.46,568.7 557.46,568.88 				"/>
					<polyline class="st32" points="574.12,405.31 574.03,425.2 573.92,448.15 573.82,470.85 573.72,493.56 573.62,515.94
						573.52,538.57 573.42,560.41 573.42,560.72 				"/>
					<polyline class="st32" points="633.34,408.44 633.02,433.86 632.71,458.48 632.4,483.08 632.1,507.46 631.81,530.86
						631.52,553.67 631.21,578.35 631.21,578.63 				"/>
					<polyline class="st32" points="682.62,503.82 682.62,503.77 683.25,480.22 683.9,455.6 684.55,431.42 685.21,406.64
						685.86,382.13 686.52,357.39 671.98,359.16 671.56,385 671.56,385.04 671.16,410.01 671.16,410.07 670.74,436.2 670.33,461.41
						670.33,461.44 669.93,486.45 669.53,511.18 669.15,534.67 				"/>
					<polyline class="st32" points="523.07,355.81 523.07,379.08 523.07,402.8 523.07,427.05 523.07,449.96 523.07,473.28
						523.07,496.62 523.07,510.26 523.07,519.1 523.07,541.76 				"/>
					<polyline class="st32" points="457.83,490.13 457.83,512.05 457.83,534.66 				"/>
					<polyline class="st32" points="437.27,563.99 437.27,541.76 468.47,546.01 468.47,568.35 437.27,564.09 				"/>
					<polyline class="st32" points="489.74,538.39 489.74,559.67 489.74,559.84 489.74,560.02 				"/>
					<polyline class="st32" points="638.98,554.49 638.34,579.28 637.66,605.93 				"/>
					<line class="st32" x1="557.42" y1="568.69" x2="489.74" y2="559.84"/>
					<polyline class="st32" points="727.65,591.04 725.51,590.76 680.49,584.83 638.34,579.28 631.25,578.35 				"/>
					<line class="st32" x1="725.52" y1="564.09" x2="725.52" y2="590.68"/>
					<polyline class="st32" points="721.27,551.33 721.92,531.3 722.68,507.72 709.57,515.16 				"/>
					<polyline class="st32" points="523.12,519.11 523.07,519.1 489.02,515.42 457.83,512.05 				"/>
					<line class="st32" x1="557.46" y1="522.83" x2="523.12" y2="519.11"/>
					<polyline class="st32" points="632.1,507.46 669.53,511.18 669.93,511.22 709.57,515.16 709.57,539.27 668.83,534.87
						631.81,530.86 				"/>
					<line class="st32" x1="523.07" y1="496.62" x2="557.46" y2="500.04"/>
					<line class="st32" x1="457.83" y1="490.13" x2="489.03" y2="493.23"/>
					<polyline class="st32" points="507.47,487.86 489.03,493.18 489.03,493.23 489.03,515.34 507.47,508.78 523.07,510.26 				"/>
					<polyline class="st32" points="507.47,508.96 507.47,508.78 507.47,487.86 507.47,487.69 478.03,484.95 				"/>
					<line class="st32" x1="557.46" y1="356.58" x2="557.46" y2="380.46"/>
					<polyline class="st32" points="594.69,381.95 594.69,381.95 594.69,406.32 				"/>
					<line class="st32" x1="633.3" y1="358.29" x2="632.33" y2="383.47"/>
					<g class="st23">
						<defs>
							<rect id="SVGID_19_" x="430" y="298" width="362" height="348.17"/>
						</defs>
						<clipPath id="SVGID_20_">
							<use xlink:href="#SVGID_19_"  style="overflow:visible;"/>
						</clipPath>
						<path class="st33" d="M666.99,357.13c-0.08-6.06-0.27-23.62,0.02-24.21h-14.89v25.53v0.26v0.09"/>
						<polyline class="st33" points="680.49,584.66 680.49,584.83 680.49,611.73 					"/>
						<polyline class="st33" points="671.98,359.16 652.13,358.71 633.3,358.29 557.46,356.58 540.8,356.21 523.07,355.81
							523.07,355.81 					"/>
						<polyline class="st33" points="671.56,385.04 632.33,383.47 594.69,381.95 557.46,380.46 523.07,379.08 					"/>
						<polyline class="st33" points="671.16,410.07 633.35,408.22 594.69,406.32 574.12,405.31 557.47,404.49 523.07,402.8 					"/>
						<line class="st33" x1="557.46" y1="429.18" x2="523.07" y2="427.05"/>
						<line class="st33" x1="557.46" y1="452.63" x2="523.07" y2="449.96"/>
						<line class="st33" x1="670.33" y1="461.41" x2="632.71" y2="458.48"/>
						<line class="st33" x1="557.46" y1="476.37" x2="523.07" y2="473.28"/>
						<polyline class="st33" points="632.4,483.08 669.93,486.45 683.25,480.22 					"/>
						<path class="st33" d="M489.86,538.16c-13.05-1.43-24.06-2.63-32.02-3.49l-20.56,7.09"/>
						<path class="st33" d="M557.46,545.55c-11.85-1.3-23.44-2.57-34.4-3.77c-11.97-1.3-23.19-2.53-33.21-3.63"/>
						<polyline class="st33" points="652.13,358.45 666.99,357.13 667.02,357.13 					"/>
						<line class="st33" x1="686.52" y1="357.39" x2="667.02" y2="357.13"/>
						<path class="st33" d="M540.8,356.21v-23.28h19.15c2.57-1.04,7.04-3.27,10.99-7.8c6.14-7.04,6.94-15,7.09-17.73h35.28h0.18
							l15.6,1.06c0.26,13.01,9.03,23.17,18.49,24.46"/>
						<path class="st33" d="M651.95,332.92h-4.38h-16.54c-12.03-4.2-19.16-15.24-17.73-25.53"/>
						<line class="st33" x1="457.83" y1="490.13" x2="478.03" y2="484.95"/>
						<polyline class="st33" points="468.47,546.01 489.68,538.22 489.86,538.16 489.86,538.16 					"/>
						<line class="st33" x1="489.74" y1="559.67" x2="468.47" y2="568.35"/>
						<line class="st33" x1="573.42" y1="538.57" x2="557.46" y2="545.55"/>
						<polyline class="st33" points="573.77,515.87 573.62,515.94 557.46,522.83 					"/>
						<polyline class="st33" points="573.77,493.54 573.72,493.56 557.46,500.04 					"/>
						<line class="st33" x1="573.77" y1="470.85" x2="557.46" y2="476.37"/>
						<line class="st33" x1="573.77" y1="448.15" x2="557.46" y2="452.63"/>
						<line class="st33" x1="573.95" y1="425.2" x2="557.46" y2="429.18"/>
						<polyline class="st33" points="639.01,554.49 655.66,543.54 668.83,534.87 669.15,534.66 					"/>
						<polyline class="st33" points="721.9,531.3 709.63,539.37 695.96,548.35 695.96,548.36 					"/>
						<path class="st33" d="M738.64,553.46l-13.12,10.64c-1.67-0.26-39.29-4.41-86.51-9.6c-0.01,0-0.02,0-0.03,0
							c-2.46-0.27-4.95-0.54-7.46-0.82"/>
						<polyline class="st33" points="711.69,605.93 727.66,591.05 737.58,581.82 738.64,553.46 721.26,551.38 695.96,548.35
							655.66,543.54 					"/>
						<line class="st33" x1="759.2" y1="613.38" x2="781.9" y2="586.08"/>
						<polyline class="st33" points="759.2,640.32 781.9,612.67 781.9,586.08 737.58,581.82 					"/>
						<polyline class="st33" points="711.69,615.94 680.49,611.73 637.66,605.94 637.59,605.93 					"/>
						<line class="st33" x1="669.93" y1="511.22" x2="682.62" y2="503.82"/>
						<line class="st33" x1="722.68" y1="507.72" x2="682.66" y2="503.77"/>
						<line class="st33" x1="683.9" y1="455.6" x2="670.33" y2="461.44"/>
						<polyline class="st33" points="684.55,431.42 670.74,436.2 633.02,433.86 					"/>
						<polyline class="st33" points="685.25,406.62 685.21,406.64 671.2,410.01 					"/>
						<path class="st33" d="M685.95,382.08c-0.01,0.01-0.02,0.02-0.03,0.03l-0.06,0.01l-14.3,2.87l-0.09,0.02"/>
						<polyline class="st33" points="557.46,568.7 573.42,560.41 573.45,560.4 					"/>
					</g>
				</g>
			</g>
			<!-- <g id="Willkommen_x5F_Schrift">
				<rect id="Rahmen_27_" x="430.5" y="435.5" class="st20" width="183" height="43"/>
				<text transform="matrix(1 0 0 1 433.5756 470.9397)" class="st21 st22">{{ site.data.map.welcome.one }}</text>
			</g> -->
		</g>
</svg>
